{"quizlist":[
  
	{
	"question":"Test Question one_____?",
	"option1":"Answer",
	"option2":"Wrong",
	"option3":"Wrong",
	"option4":"Wrong"
	},
	{
	"question":"Test Question two_____?",
	"option1":"Answer",
	"option2":"Wrong",
	"option3":"Wrong",
	"option4":"Wrong"
	},
	{
	"question":"Test Question three_____?",
	"option1":"Answer",
	"option2":"Wrong",
	"option3":"Wrong",
	"option4":"Wrong"
	}

]
}